[gd_resource type="Animation" format=2]

[resource]
resource_name = "wone_anim"
length = 25.7
step = 0.05
tracks/0/type = "bezier"
tracks/0/path = NodePath("img/wone4:position:y")
tracks/0/interp = 1
tracks/0/loop_wrap = true
tracks/0/imported = false
tracks/0/enabled = true
tracks/0/keys = {
"points": PoolRealArray( 936.532, -0.25, 0, 0, -524.227, 320, -0.141577, 4.19574, 0.25, 0 ),
"times": PoolRealArray( 0.9, 1.65 )
}
tracks/1/type = "value"
tracks/1/path = NodePath("AudioStreamPlayer:playing")
tracks/1/interp = 1
tracks/1/loop_wrap = true
tracks/1/imported = false
tracks/1/enabled = true
tracks/1/keys = {
"times": PoolRealArray( 0, 0.1, 25.7 ),
"transitions": PoolRealArray( 1, 1, 1 ),
"update": 1,
"values": [ false, true, false ]
}
tracks/2/type = "value"
tracks/2/path = NodePath("img/wone4:visible")
tracks/2/interp = 1
tracks/2/loop_wrap = true
tracks/2/imported = false
tracks/2/enabled = true
tracks/2/keys = {
"times": PoolRealArray( 0.1, 1.75 ),
"transitions": PoolRealArray( 1, 1 ),
"update": 1,
"values": [ true, false ]
}
tracks/3/type = "value"
tracks/3/path = NodePath("img/wone3_1:visible")
tracks/3/interp = 1
tracks/3/loop_wrap = true
tracks/3/imported = false
tracks/3/enabled = true
tracks/3/keys = {
"times": PoolRealArray( 0, 1.75, 3.85 ),
"transitions": PoolRealArray( 1, 1, 1 ),
"update": 1,
"values": [ false, true, false ]
}
tracks/4/type = "bezier"
tracks/4/path = NodePath("img/wone3_1:position:x")
tracks/4/interp = 1
tracks/4/loop_wrap = true
tracks/4/imported = false
tracks/4/enabled = true
tracks/4/keys = {
"points": PoolRealArray( -275.096, -0.25, 0, 0.575366, 689.38, 484, -0.531249, 4.58505, 0.25, 0 ),
"times": PoolRealArray( 1.75, 3.08674 )
}
tracks/5/type = "bezier"
tracks/5/path = NodePath("img/wone3_1/wone3:position:x")
tracks/5/interp = 1
tracks/5/loop_wrap = true
tracks/5/imported = false
tracks/5/enabled = true
tracks/5/keys = {
"points": PoolRealArray( 17.0196, -0.25, 0, 0.1925, 21.0911, 47.0745, -0.5975, -3.27049, 0.25, 0 ),
"times": PoolRealArray( 2.55, 3.9 )
}
tracks/6/type = "value"
tracks/6/path = NodePath("img/wone2:visible")
tracks/6/interp = 1
tracks/6/loop_wrap = true
tracks/6/imported = false
tracks/6/enabled = true
tracks/6/keys = {
"times": PoolRealArray( 3.85, 5.75 ),
"transitions": PoolRealArray( 1, 1 ),
"update": 1,
"values": [ true, false ]
}
tracks/7/type = "bezier"
tracks/7/path = NodePath("img/wone2:position:x")
tracks/7/interp = 1
tracks/7/loop_wrap = true
tracks/7/imported = false
tracks/7/enabled = true
tracks/7/keys = {
"points": PoolRealArray( 1181, -0.25, 0, 0.322413, -655.726, 512, -0.210802, 0.374146, 0.25, 0 ),
"times": PoolRealArray( 3.85, 5.5 )
}
tracks/8/type = "value"
tracks/8/path = NodePath("particles/CPUParticles2D:emitting")
tracks/8/interp = 1
tracks/8/loop_wrap = true
tracks/8/imported = false
tracks/8/enabled = true
tracks/8/keys = {
"times": PoolRealArray( 0, 1.75, 9.8 ),
"transitions": PoolRealArray( 1, 1, 1 ),
"update": 1,
"values": [ false, true, false ]
}
tracks/9/type = "value"
tracks/9/path = NodePath("particles/CPUParticles2D2:emitting")
tracks/9/interp = 1
tracks/9/loop_wrap = true
tracks/9/imported = false
tracks/9/enabled = true
tracks/9/keys = {
"times": PoolRealArray( 0, 1.75, 9.8 ),
"transitions": PoolRealArray( 1, 1, 1 ),
"update": 1,
"values": [ false, true, false ]
}
tracks/10/type = "bezier"
tracks/10/path = NodePath("img/wone2/wone2_1:position:x")
tracks/10/interp = 1
tracks/10/loop_wrap = true
tracks/10/imported = false
tracks/10/enabled = true
tracks/10/keys = {
"points": PoolRealArray( -15, -0.25, 0, 0.25, 0, -40, -0.25, 0, 0.25, 0 ),
"times": PoolRealArray( 4.75, 6.05 )
}
tracks/11/type = "value"
tracks/11/path = NodePath("img/wone5:visible")
tracks/11/interp = 1
tracks/11/loop_wrap = true
tracks/11/imported = false
tracks/11/enabled = true
tracks/11/keys = {
"times": PoolRealArray( 5.75, 7.6 ),
"transitions": PoolRealArray( 1, 1 ),
"update": 1,
"values": [ true, false ]
}
tracks/12/type = "bezier"
tracks/12/path = NodePath("img/wone5:position:x")
tracks/12/interp = 1
tracks/12/loop_wrap = true
tracks/12/imported = false
tracks/12/enabled = true
tracks/12/keys = {
"points": PoolRealArray( 512, -0.25, 0, 0.25, 0, 512, -0.25, 0, 0.25, 0, 512, -0.25, 0, 0.25, 0, 1400, -0.25, 0, 0.25, 0 ),
"times": PoolRealArray( 5.75, 6.5, 7.2, 7.6 )
}
tracks/13/type = "bezier"
tracks/13/path = NodePath("img/wone5:position:y")
tracks/13/interp = 1
tracks/13/loop_wrap = true
tracks/13/imported = false
tracks/13/enabled = true
tracks/13/keys = {
"points": PoolRealArray( 910, -0.25, 0, 0.0961876, -625.847, 320, -0.0920353, 5.43097, 0.25, 0, 320, -0.25, 0, 0.25, 0, 320, -0.25, 0, 0.25, 0 ),
"times": PoolRealArray( 5.75, 6.5, 7.2, 7.6 )
}
tracks/14/type = "value"
tracks/14/path = NodePath("particles:visible")
tracks/14/interp = 1
tracks/14/loop_wrap = true
tracks/14/imported = false
tracks/14/enabled = true
tracks/14/keys = {
"times": PoolRealArray( 1.75, 9.75 ),
"transitions": PoolRealArray( 1, 1 ),
"update": 1,
"values": [ true, false ]
}
tracks/15/type = "value"
tracks/15/path = NodePath("img/wone6:visible")
tracks/15/interp = 1
tracks/15/loop_wrap = true
tracks/15/imported = false
tracks/15/enabled = true
tracks/15/keys = {
"times": PoolRealArray( 7.2, 9.55 ),
"transitions": PoolRealArray( 1, 1 ),
"update": 1,
"values": [ true, false ]
}
tracks/16/type = "bezier"
tracks/16/path = NodePath("img/wone6:position:x")
tracks/16/interp = 1
tracks/16/loop_wrap = true
tracks/16/imported = false
tracks/16/enabled = true
tracks/16/keys = {
"points": PoolRealArray( -202.022, -0.25, 0, 0.25, 0, 512, -0.25, 0, 0.25, 0, 512, -0.25, 0, 0.25, 0 ),
"times": PoolRealArray( 7.2, 7.6, 8.4 )
}
tracks/17/type = "bezier"
tracks/17/path = NodePath("img/wone6:position:y")
tracks/17/interp = 1
tracks/17/loop_wrap = true
tracks/17/imported = false
tracks/17/enabled = true
tracks/17/keys = {
"points": PoolRealArray( 460, -0.25, 0, 0.25, 0, 460, -0.25, 0, 0, -109.174, 290, -0.152515, 2.02579, 0.25, 0 ),
"times": PoolRealArray( 7.2, 7.6, 8.4 )
}
tracks/18/type = "bezier"
tracks/18/path = NodePath("img/wone6:scale:x")
tracks/18/interp = 1
tracks/18/loop_wrap = true
tracks/18/imported = false
tracks/18/enabled = true
tracks/18/keys = {
"points": PoolRealArray( 1, -0.25, 0, 0.018024, 0.149928, 1.2, -0.25, 0, 0.25, 0 ),
"times": PoolRealArray( 7.6, 8.4 )
}
tracks/19/type = "bezier"
tracks/19/path = NodePath("img/wone6:scale:y")
tracks/19/interp = 1
tracks/19/loop_wrap = true
tracks/19/imported = false
tracks/19/enabled = true
tracks/19/keys = {
"points": PoolRealArray( 1, -0.25, 0, 0.0315609, 0.166858, 1.2, -0.199894, -0.00266826, 0.25, 0 ),
"times": PoolRealArray( 7.6, 8.4 )
}
tracks/20/type = "value"
tracks/20/path = NodePath("img/wone1:visible")
tracks/20/interp = 1
tracks/20/loop_wrap = true
tracks/20/imported = false
tracks/20/enabled = true
tracks/20/keys = {
"times": PoolRealArray( 0, 10 ),
"transitions": PoolRealArray( 1, 1 ),
"update": 1,
"values": [ false, true ]
}
tracks/21/type = "value"
tracks/21/path = NodePath("img/wone1:rotation_degrees")
tracks/21/interp = 1
tracks/21/loop_wrap = true
tracks/21/imported = false
tracks/21/enabled = true
tracks/21/keys = {
"times": PoolRealArray( 10, 10.5, 11, 11.5, 12, 12.5, 13, 13.5, 14, 14.5, 15, 15.5, 16, 16.5, 17, 17.5, 18, 18.5, 19, 19.5, 20, 20.5, 21, 21.5, 22, 22.5, 23, 23.5, 24, 24.5, 25, 25.5 ),
"transitions": PoolRealArray( 1, 0.00012207, 1, 0.00012207, 1, 0.00012207, 1, 0.00012207, 1, 0.00012207, 1, 0.00012207, 1, 0.00012207, 1, 0.00012207, 1, 0.00012207, 1, 0.00012207, 1, 0.00012207, 1, 0.00012207, 1, 0.00012207, 1, 0.00012207, 1, 0.00012207, 1, 0.00012207 ),
"update": 1,
"values": [ -11.7934, 11.8, -11.7934, 11.8, -11.7934, 11.8, -11.7934, 11.8, -11.7934, 11.8, -11.7934, 11.8, -11.7934, 11.8, -11.7934, 11.8, -11.7934, 11.8, -11.7934, 11.8, -11.7934, 11.8, -11.7934, 11.8, -11.7934, 11.8, -11.7934, 11.8, -11.7934, 11.8, -11.7934, 11.8 ]
}
tracks/22/type = "bezier"
tracks/22/path = NodePath("img/wone1:scale:x")
tracks/22/interp = 1
tracks/22/loop_wrap = true
tracks/22/imported = false
tracks/22/enabled = true
tracks/22/keys = {
"points": PoolRealArray( 1.94152, -0.25, 0, 0.25, 0, 0.60405, -0.25, 0, 0.25, 0 ),
"times": PoolRealArray( 10, 19 )
}
tracks/23/type = "bezier"
tracks/23/path = NodePath("img/wone1:scale:y")
tracks/23/interp = 1
tracks/23/loop_wrap = true
tracks/23/imported = false
tracks/23/enabled = true
tracks/23/keys = {
"points": PoolRealArray( 1.94152, -0.25, 0, 0.25, 0, 0.60405, -0.25, 0, 0.25, 0 ),
"times": PoolRealArray( 10, 19 )
}
tracks/24/type = "bezier"
tracks/24/path = NodePath("img/wone1:position:x")
tracks/24/interp = 1
tracks/24/loop_wrap = true
tracks/24/imported = false
tracks/24/enabled = true
tracks/24/keys = {
"points": PoolRealArray( 247.305, -0.25, 0, 0.25, 0, 115, -0.25, 0, 0.25, 0 ),
"times": PoolRealArray( 10, 19 )
}
tracks/25/type = "bezier"
tracks/25/path = NodePath("img/wone1:position:y")
tracks/25/interp = 1
tracks/25/loop_wrap = true
tracks/25/imported = false
tracks/25/enabled = true
tracks/25/keys = {
"points": PoolRealArray( 193.819, -0.25, 0, 0.25, 0, 460.787, -0.25, 0, 0.25, 0 ),
"times": PoolRealArray( 10, 19 )
}
tracks/26/type = "bezier"
tracks/26/path = NodePath("rectangles/ColorRect:margin_left")
tracks/26/interp = 1
tracks/26/loop_wrap = true
tracks/26/imported = false
tracks/26/enabled = true
tracks/26/keys = {
"points": PoolRealArray( 1038, -0.25, 0, 0.25, 0, -25, -0.25, 0, 0.25, 0 ),
"times": PoolRealArray( 10, 13 )
}
tracks/27/type = "bezier"
tracks/27/path = NodePath("rectangles/ColorRect:margin_top")
tracks/27/interp = 1
tracks/27/loop_wrap = true
tracks/27/imported = false
tracks/27/enabled = true
tracks/27/keys = {
"points": PoolRealArray( 95, -0.25, 0, 0.25, 0, 400, -0.25, 0, 0.25, 0 ),
"times": PoolRealArray( 10, 19 )
}
tracks/28/type = "bezier"
tracks/28/path = NodePath("rectangles/ColorRect:margin_bottom")
tracks/28/interp = 1
tracks/28/loop_wrap = true
tracks/28/imported = false
tracks/28/enabled = true
tracks/28/keys = {
"points": PoolRealArray( 235, -0.25, 0, 0.25, 0, 410, -0.25, 0, 0.25, 0 ),
"times": PoolRealArray( 10, 19 )
}
tracks/29/type = "value"
tracks/29/path = NodePath("rectangles:visible")
tracks/29/interp = 1
tracks/29/loop_wrap = true
tracks/29/imported = false
tracks/29/enabled = true
tracks/29/keys = {
"times": PoolRealArray( 10 ),
"transitions": PoolRealArray( 1 ),
"update": 1,
"values": [ true ]
}
tracks/30/type = "bezier"
tracks/30/path = NodePath("rectangles/pink_rect:margin_top")
tracks/30/interp = 1
tracks/30/loop_wrap = true
tracks/30/imported = false
tracks/30/enabled = true
tracks/30/keys = {
"points": PoolRealArray( 603, -0.25, 0, 0.25, 0, -22, -0.25, 0, 0.25, 0 ),
"times": PoolRealArray( 12.05, 14 )
}
tracks/31/type = "bezier"
tracks/31/path = NodePath("rectangles/pink_rect:margin_right")
tracks/31/interp = 1
tracks/31/loop_wrap = true
tracks/31/imported = false
tracks/31/enabled = true
tracks/31/keys = {
"points": PoolRealArray( 835, -0.25, 0, 0.25, 0, -13.8694, -0.25, 0, 0.25, 0 ),
"times": PoolRealArray( 12.05, 16.1 )
}
tracks/32/type = "bezier"
tracks/32/path = NodePath("rectangles/pink_rect:margin_left")
tracks/32/interp = 1
tracks/32/loop_wrap = true
tracks/32/imported = false
tracks/32/enabled = true
tracks/32/keys = {
"points": PoolRealArray( 776, -0.25, 0, 0.25, 0, -32.8694, -0.25, 0, 0.25, 0 ),
"times": PoolRealArray( 12.05, 16.1 )
}
tracks/33/type = "bezier"
tracks/33/path = NodePath("img/wone_title:position:x")
tracks/33/interp = 1
tracks/33/loop_wrap = true
tracks/33/imported = false
tracks/33/enabled = true
tracks/33/keys = {
"points": PoolRealArray( 1214.92, -0.25, 0, 0.25, 0, 550.42, -0.25, 0, 0.25, 0 ),
"times": PoolRealArray( 15, 19 )
}
tracks/34/type = "bezier"
tracks/34/path = NodePath("img/wone_title:position:y")
tracks/34/interp = 1
tracks/34/loop_wrap = true
tracks/34/imported = false
tracks/34/enabled = true
tracks/34/keys = {
"points": PoolRealArray( -161.743, -0.25, 0, 0.25, 0, 251.323, -0.25, 0, 0.25, 0 ),
"times": PoolRealArray( 15, 19 )
}
tracks/35/type = "bezier"
tracks/35/path = NodePath("img/wone_title:scale:x")
tracks/35/interp = 1
tracks/35/loop_wrap = true
tracks/35/imported = false
tracks/35/enabled = true
tracks/35/keys = {
"points": PoolRealArray( 1, -0.25, 0, 0.25, 0, 0.800001, -0.25, 0, 0.25, 0 ),
"times": PoolRealArray( 15, 19 )
}
tracks/36/type = "bezier"
tracks/36/path = NodePath("img/wone_title:scale:y")
tracks/36/interp = 1
tracks/36/loop_wrap = true
tracks/36/imported = false
tracks/36/enabled = true
tracks/36/keys = {
"points": PoolRealArray( 1, -0.25, 0, 0.25, 0, 0.800001, -0.25, 0, 0.25, 0 ),
"times": PoolRealArray( 15, 19 )
}
